{
  "type": "tab",
  "id": "ac5dd3c5.53a23",
  "label": "Sheet 1",
  "flow": [
    {
      "id": "25a53796.da5ac8",
      "type": "inject",
      "z": "ac5dd3c5.53a23",
      "name": "",
      "topic": "",
      "payload": "",
      "payloadType": "date",
      "repeat": "",
      "crontab": "",
      "once": false,
      "x": 134,
      "y": 567,
      "wires": [
        []
      ]
    },
    {
      "id": "ac5d140b.53a2e8",
      "type": "http in",
      "z": "ac5dd3c5.53a23",
      "name": "",
      "url": "",
      "method": "get",
      "x": 124,
      "y": 622,
      "wires": [
        []
      ]
    },
    {
      "id": "ef3bc8d7.10c438",
      "type": "debug",
      "z": "ac5dd3c5.53a23",
      "name": "",
      "active": true,
      "console": "false",
      "complete": "false",
      "x": 335.5,
      "y": 139,
      "wires": []
    },
    {
      "id": "7acbc0fc.85344",
      "type": "feedparse",
      "z": "ac5dd3c5.53a23",
      "name": "cnn",
      "url": "http://rss.cnn.com/rss/edition.rss",
      "interval": 15,
      "x": 128,
      "y": 139,
      "wires": [
        [
          "ef3bc8d7.10c438"
        ]
      ]
    }
  ]
}